<?xml version="1.0" encoding="UTF-8"?>
<CustomTab xmlns="http://soap.sforce.com/2006/04/metadata">
    <customObject>true</customObject>
    <description>Phone Directory to store numbers for CTI</description>
    <mobileReady>false</mobileReady>
    <motif>Custom28: Cell phone</motif>
</CustomTab>
