<?xml version="1.0" encoding="UTF-8"?>
<CustomTab xmlns="http://soap.sforce.com/2006/04/metadata">
    <customObject>true</customObject>
    <description>COMM: S-341003</description>
    <mobileReady>false</mobileReady>
    <motif>Custom29: PDA</motif>
</CustomTab>
