<?xml version="1.0" encoding="UTF-8"?>
<CustomTab xmlns="http://soap.sforce.com/2006/04/metadata">
    <customObject>true</customObject>
    <description>Used to record acceptance or rejection of a work order by each technician assigned to the work order.</description>
    <mobileReady>false</mobileReady>
    <motif>Custom15: People</motif>
</CustomTab>
