<?xml version="1.0" encoding="UTF-8"?>
<CustomTab xmlns="http://soap.sforce.com/2006/04/metadata">
    <customObject>true</customObject>
    <description>S-438271 - T-541925</description>
    <mobileReady>false</mobileReady>
    <motif>Custom99: CRT TV</motif>
</CustomTab>
