<?xml version="1.0" encoding="UTF-8"?>
<CustomTab xmlns="http://soap.sforce.com/2006/04/metadata">
    <customObject>true</customObject>
    <description>Child object to Work Order Acceptance which allows each FST to accept or reject a work order assignment with reason rejected.</description>
    <mobileReady>false</mobileReady>
    <motif>Custom44: Hammer</motif>
</CustomTab>
